5 Modelos clásicos – Aprendizaje máquina supervisado con R
…
Por otra parte, también se pretende entender mejor los factores que puedan estar influyendo en la aparición de estas algas perniciosas, es decir, identificar si estas frecuencias están correladas de alguna forma con las características químicas descriptivas de la muestra tomada o con alguna otra variable (tipo del río, época del año en la que se tomó la muestra, etc.).

5.2 Datasets

ID: DMwR2::algae.

Los datos para este estudio provienen de la competición internacional de análisis de datos COIL 1999, y están disponibles a través de diferentes fuentes, incluyendo el UCI Machine Learning Repository.

El conjunto de datos contiene en total 200 muestras tomadas de diferentes ríos europeos. Los datos pueden cargarse directamente desde el paquete DMwR2 de la siguiente forma:

data(algae, package="DMwR2")
algae

# A tibble: 200 × 18
   season size  speed   mxPH  mnO2    Cl    NO3   NH4  oPO4   PO4  Chla    a1
   <fct>  <fct> <fct>  <dbl> <dbl> <dbl>  <dbl> <dbl> <dbl> <dbl> <dbl> <dbl>
 1 winter small medium  8      9.8  60.8  6.24  578   105   170   50      0  
 2 spring small medium  8.35   8    57.8  1.29  370   429.  559.   1.3    1.4
 3 autumn small medium  8.1   11.4  40.0  5.33  347.  126.  187.  15.6    3.3
 4 spring small medium  8.07   4.8  77.4  2.30   98.2  61.2 139.   1.4    3.1
 5 autumn small medium  8.06   9    55.4 10.4   234.   58.2  97.6 10.5    9.2
 6 winter small high    8.25  13.1  65.8  9.25  430    18.2  56.7 28.4   15.1
 7 summer small high    8.15  10.3  73.2  1.54  110    61.2 112.   3.2    2.4
 8 autumn small high    8.05  10.6  59.1  4.99  206.   44.7  77.4  6.9   18.2
 9 winter small medium  8.7    3.4  22.0  0.886 103.   36.3  71    5.54  25.4
10 winter small high    7.93   9.9   8    1.39    5.8  27.2  46.6  0.8   17  
# ℹ 190 more rows
# ℹ 6 more variables: a2 <dbl>, a3 <dbl>, a4 <dbl>, a5 <dbl>, a6 <dbl>,
#   a7 <dbl>
…
